%YAML 1.1
%TAG !u! tag:unity3d.com,2011:
--- !u!74 &7400000
AnimationClip:
  m_ObjectHideFlags: 0
  m_PrefabParentObject: {fileID: 0}
  m_PrefabInternal: {fileID: 0}
  m_Name: DeadExplosionAnimation
  serializedVersion: 6
  m_Legacy: 0
  m_Compressed: 0
  m_UseHighQualityCurve: 1
  m_RotationCurves: []
  m_CompressedRotationCurves: []
  m_EulerCurves: []
  m_PositionCurves: []
  m_ScaleCurves: []
  m_FloatCurves: []
  m_PPtrCurves:
  - curve:
    - time: 0
      value: {fileID: 21300000, guid: 6fb255a934082d24ca0efa776b8ea2c0, type: 3}
    - time: 0.083333336
      value: {fileID: 21300000, guid: b2f3a4fa943436046b73481b437d64e2, type: 3}
    - time: 0.16666667
      value: {fileID: 21300000, guid: 9cee854578cf87f439fdcbe753820015, type: 3}
    - time: 0.25
      value: {fileID: 21300000, guid: 0223a907f2ab3714393b86cb59fd5502, type: 3}
    - time: 0.33333334
      value: {fileID: 21300000, guid: 185a1c22e6487b0468a5a968e58dbb35, type: 3}
    - time: 0.41666666
      value: {fileID: 21300000, guid: ae463dc433229a344aaf4e450ee3e347, type: 3}
    - time: 0.5
      value: {fileID: 21300000, guid: 414767c16d77aed41866fd068b388d92, type: 3}
    - time: 0.5833333
      value: {fileID: 21300000, guid: a454a5da2f5f7064e9571119ea58da3e, type: 3}
    - time: 0.6666667
      value: {fileID: 21300000, guid: d10be2dc012695b4cb317a0dbd1d41d1, type: 3}
    - time: 0.75
      value: {fileID: 21300000, guid: d63d03ca9d2f6fa469555ae7b6c7939b, type: 3}
    - time: 0.8333333
      value: {fileID: 21300000, guid: 0743048c40d96354fba4887d66279ddb, type: 3}
    - time: 0.9166667
      value: {fileID: 21300000, guid: 6c5a7f4bace959446a91fc33b68d45c5, type: 3}
    attribute: m_Sprite
    path: 
    classID: 212
    script: {fileID: 0}
  m_SampleRate: 12
  m_WrapMode: 0
  m_Bounds:
    m_Center: {x: 0, y: 0, z: 0}
    m_Extent: {x: 0, y: 0, z: 0}
  m_ClipBindingConstant:
    genericBindings:
    - serializedVersion: 2
      path: 0
      attribute: 0
      script: {fileID: 0}
      typeID: 212
      customType: 23
      isPPtrCurve: 1
    pptrCurveMapping:
    - {fileID: 21300000, guid: 6fb255a934082d24ca0efa776b8ea2c0, type: 3}
    - {fileID: 21300000, guid: b2f3a4fa943436046b73481b437d64e2, type: 3}
    - {fileID: 21300000, guid: 9cee854578cf87f439fdcbe753820015, type: 3}
    - {fileID: 21300000, guid: 0223a907f2ab3714393b86cb59fd5502, type: 3}
    - {fileID: 21300000, guid: 185a1c22e6487b0468a5a968e58dbb35, type: 3}
    - {fileID: 21300000, guid: ae463dc433229a344aaf4e450ee3e347, type: 3}
    - {fileID: 21300000, guid: 414767c16d77aed41866fd068b388d92, type: 3}
    - {fileID: 21300000, guid: a454a5da2f5f7064e9571119ea58da3e, type: 3}
    - {fileID: 21300000, guid: d10be2dc012695b4cb317a0dbd1d41d1, type: 3}
    - {fileID: 21300000, guid: d63d03ca9d2f6fa469555ae7b6c7939b, type: 3}
    - {fileID: 21300000, guid: 0743048c40d96354fba4887d66279ddb, type: 3}
    - {fileID: 21300000, guid: 6c5a7f4bace959446a91fc33b68d45c5, type: 3}
  m_AnimationClipSettings:
    serializedVersion: 2
    m_AdditiveReferencePoseClip: {fileID: 0}
    m_AdditiveReferencePoseTime: 0
    m_StartTime: 0
    m_StopTime: 1
    m_OrientationOffsetY: 0
    m_Level: 0
    m_CycleOffset: 0
    m_HasAdditiveReferencePose: 0
    m_LoopTime: 0
    m_LoopBlend: 0
    m_LoopBlendOrientation: 0
    m_LoopBlendPositionY: 0
    m_LoopBlendPositionXZ: 0
    m_KeepOriginalOrientation: 0
    m_KeepOriginalPositionY: 1
    m_KeepOriginalPositionXZ: 0
    m_HeightFromFeet: 0
    m_Mirror: 0
  m_EditorCurves: []
  m_EulerEditorCurves: []
  m_HasGenericRootTransform: 0
  m_HasMotionFloatCurves: 0
  m_GenerateMotionCurves: 0
  m_Events: []
