%YAML 1.1
%TAG !u! tag:unity3d.com,2011:
--- !u!74 &7400000
AnimationClip:
  m_ObjectHideFlags: 0
  m_PrefabParentObject: {fileID: 0}
  m_PrefabInternal: {fileID: 0}
  m_Name: ATK
  serializedVersion: 6
  m_Legacy: 0
  m_Compressed: 0
  m_UseHighQualityCurve: 1
  m_RotationCurves: []
  m_CompressedRotationCurves: []
  m_EulerCurves: []
  m_PositionCurves: []
  m_ScaleCurves: []
  m_FloatCurves: []
  m_PPtrCurves:
  - curve:
    - time: 0
      value: {fileID: 21300000, guid: 0aaa897792d38614ca8f6eb4811e40a3, type: 3}
    - time: 0.1
      value: {fileID: 21300000, guid: a7af85d753eaa77499955d167300e47a, type: 3}
    - time: 0.2
      value: {fileID: 21300000, guid: 28afaddc8cd55474a9191a403b1c0232, type: 3}
    - time: 0.3
      value: {fileID: 21300000, guid: fae8c052ea053644f9f3ad9517c39563, type: 3}
    - time: 0.4
      value: {fileID: 21300000, guid: 26959b1ccf227f14bb9e07f015341a6a, type: 3}
    - time: 0.5
      value: {fileID: 21300000, guid: f7c77b68b3ba9b645b6cebfb37792544, type: 3}
    attribute: m_Sprite
    path: 
    classID: 212
    script: {fileID: 0}
  m_SampleRate: 10
  m_WrapMode: 0
  m_Bounds:
    m_Center: {x: 0, y: 0, z: 0}
    m_Extent: {x: 0, y: 0, z: 0}
  m_ClipBindingConstant:
    genericBindings:
    - serializedVersion: 2
      path: 0
      attribute: 0
      script: {fileID: 0}
      typeID: 212
      customType: 23
      isPPtrCurve: 1
    pptrCurveMapping:
    - {fileID: 21300000, guid: 0aaa897792d38614ca8f6eb4811e40a3, type: 3}
    - {fileID: 21300000, guid: a7af85d753eaa77499955d167300e47a, type: 3}
    - {fileID: 21300000, guid: 28afaddc8cd55474a9191a403b1c0232, type: 3}
    - {fileID: 21300000, guid: fae8c052ea053644f9f3ad9517c39563, type: 3}
    - {fileID: 21300000, guid: 26959b1ccf227f14bb9e07f015341a6a, type: 3}
    - {fileID: 21300000, guid: f7c77b68b3ba9b645b6cebfb37792544, type: 3}
  m_AnimationClipSettings:
    serializedVersion: 2
    m_AdditiveReferencePoseClip: {fileID: 0}
    m_AdditiveReferencePoseTime: 0
    m_StartTime: 0
    m_StopTime: 0.6
    m_OrientationOffsetY: 0
    m_Level: 0
    m_CycleOffset: 0
    m_HasAdditiveReferencePose: 0
    m_LoopTime: 0
    m_LoopBlend: 0
    m_LoopBlendOrientation: 0
    m_LoopBlendPositionY: 0
    m_LoopBlendPositionXZ: 0
    m_KeepOriginalOrientation: 0
    m_KeepOriginalPositionY: 1
    m_KeepOriginalPositionXZ: 0
    m_HeightFromFeet: 0
    m_Mirror: 0
  m_EditorCurves: []
  m_EulerEditorCurves: []
  m_HasGenericRootTransform: 0
  m_HasMotionFloatCurves: 0
  m_GenerateMotionCurves: 0
  m_Events:
  - time: 0.4
    functionName: ShootingBullet
    data: 
    objectReferenceParameter: {fileID: 0}
    floatParameter: 0
    intParameter: 0
    messageOptions: 0
