%YAML 1.1
%TAG !u! tag:unity3d.com,2011:
--- !u!74 &7400000
AnimationClip:
  m_ObjectHideFlags: 0
  m_PrefabParentObject: {fileID: 0}
  m_PrefabInternal: {fileID: 0}
  m_Name: FlyingMissle
  serializedVersion: 6
  m_Legacy: 0
  m_Compressed: 0
  m_UseHighQualityCurve: 1
  m_RotationCurves: []
  m_CompressedRotationCurves: []
  m_EulerCurves: []
  m_PositionCurves: []
  m_ScaleCurves: []
  m_FloatCurves: []
  m_PPtrCurves:
  - curve:
    - time: 0
      value: {fileID: 21300000, guid: a417b9421da4e8a4993c277a5eacb8db, type: 3}
    - time: 0.083333336
      value: {fileID: 21300000, guid: 872f4b3ec6cd396498eb85291a60e176, type: 3}
    - time: 0.16666667
      value: {fileID: 21300000, guid: 0f4aa983efc5c5f48bd943417e4d4729, type: 3}
    - time: 0.25
      value: {fileID: 21300000, guid: 1e2adb18c56593343a24ef97ef9af3f4, type: 3}
    - time: 0.33333334
      value: {fileID: 21300000, guid: 817dc65bf8f3b6f45ab0d4d73045a0a5, type: 3}
    - time: 0.41666666
      value: {fileID: 21300000, guid: 80755ba0a80c9cb4fb954bd7dc9cf98d, type: 3}
    - time: 0.5
      value: {fileID: 21300000, guid: 1b0e3a556422ee54ab661318a8d641fc, type: 3}
    - time: 0.5833333
      value: {fileID: 21300000, guid: f73af0663f57ea54f85cce98fabc638d, type: 3}
    - time: 0.6666667
      value: {fileID: 21300000, guid: dbd3f569860e8dc40855b16ce7a4abed, type: 3}
    attribute: m_Sprite
    path: 
    classID: 212
    script: {fileID: 0}
  m_SampleRate: 12
  m_WrapMode: 0
  m_Bounds:
    m_Center: {x: 0, y: 0, z: 0}
    m_Extent: {x: 0, y: 0, z: 0}
  m_ClipBindingConstant:
    genericBindings:
    - serializedVersion: 2
      path: 0
      attribute: 0
      script: {fileID: 0}
      typeID: 212
      customType: 23
      isPPtrCurve: 1
    pptrCurveMapping:
    - {fileID: 21300000, guid: a417b9421da4e8a4993c277a5eacb8db, type: 3}
    - {fileID: 21300000, guid: 872f4b3ec6cd396498eb85291a60e176, type: 3}
    - {fileID: 21300000, guid: 0f4aa983efc5c5f48bd943417e4d4729, type: 3}
    - {fileID: 21300000, guid: 1e2adb18c56593343a24ef97ef9af3f4, type: 3}
    - {fileID: 21300000, guid: 817dc65bf8f3b6f45ab0d4d73045a0a5, type: 3}
    - {fileID: 21300000, guid: 80755ba0a80c9cb4fb954bd7dc9cf98d, type: 3}
    - {fileID: 21300000, guid: 1b0e3a556422ee54ab661318a8d641fc, type: 3}
    - {fileID: 21300000, guid: f73af0663f57ea54f85cce98fabc638d, type: 3}
    - {fileID: 21300000, guid: dbd3f569860e8dc40855b16ce7a4abed, type: 3}
  m_AnimationClipSettings:
    serializedVersion: 2
    m_AdditiveReferencePoseClip: {fileID: 0}
    m_AdditiveReferencePoseTime: 0
    m_StartTime: 0
    m_StopTime: 0.75
    m_OrientationOffsetY: 0
    m_Level: 0
    m_CycleOffset: 0
    m_HasAdditiveReferencePose: 0
    m_LoopTime: 1
    m_LoopBlend: 0
    m_LoopBlendOrientation: 0
    m_LoopBlendPositionY: 0
    m_LoopBlendPositionXZ: 0
    m_KeepOriginalOrientation: 0
    m_KeepOriginalPositionY: 1
    m_KeepOriginalPositionXZ: 0
    m_HeightFromFeet: 0
    m_Mirror: 0
  m_EditorCurves: []
  m_EulerEditorCurves: []
  m_HasGenericRootTransform: 0
  m_HasMotionFloatCurves: 0
  m_GenerateMotionCurves: 0
  m_Events: []
