%YAML 1.1
%TAG !u! tag:unity3d.com,2011:
--- !u!74 &7400000
AnimationClip:
  m_ObjectHideFlags: 0
  m_PrefabParentObject: {fileID: 0}
  m_PrefabInternal: {fileID: 0}
  m_Name: Damage1_Atk
  serializedVersion: 6
  m_Legacy: 0
  m_Compressed: 0
  m_UseHighQualityCurve: 1
  m_RotationCurves: []
  m_CompressedRotationCurves: []
  m_EulerCurves: []
  m_PositionCurves: []
  m_ScaleCurves: []
  m_FloatCurves: []
  m_PPtrCurves:
  - curve:
    - time: 0
      value: {fileID: 21300000, guid: bdfcf9939ffb9fc4795f3c89f21126b2, type: 3}
    - time: 1
      value: {fileID: 21300000, guid: 357a15a4deeb9c649816c438bfe1ac1a, type: 3}
    - time: 2
      value: {fileID: 21300000, guid: 2f70d13756526ad42aabe6fdb239fa1b, type: 3}
    - time: 3
      value: {fileID: 21300000, guid: 0acf2627c629c2345805c41ae2a603be, type: 3}
    - time: 4
      value: {fileID: 21300000, guid: 75b2b03ac93c76445bc56b3bd2348a94, type: 3}
    - time: 5
      value: {fileID: 21300000, guid: 8d0d7b82d5354e44699cce7953fe9183, type: 3}
    - time: 6
      value: {fileID: 21300000, guid: d7aac7dc50b14ae4cbd06d7236a6807b, type: 3}
    - time: 7
      value: {fileID: 21300000, guid: d7aac7dc50b14ae4cbd06d7236a6807b, type: 3}
    - time: 8
      value: {fileID: 21300000, guid: d7aac7dc50b14ae4cbd06d7236a6807b, type: 3}
    - time: 9
      value: {fileID: 21300000, guid: d7aac7dc50b14ae4cbd06d7236a6807b, type: 3}
    - time: 10
      value: {fileID: 21300000, guid: d7aac7dc50b14ae4cbd06d7236a6807b, type: 3}
    - time: 11
      value: {fileID: 21300000, guid: d7aac7dc50b14ae4cbd06d7236a6807b, type: 3}
    - time: 12
      value: {fileID: 21300000, guid: d7aac7dc50b14ae4cbd06d7236a6807b, type: 3}
    - time: 13
      value: {fileID: 21300000, guid: d7aac7dc50b14ae4cbd06d7236a6807b, type: 3}
    - time: 14
      value: {fileID: 21300000, guid: d7aac7dc50b14ae4cbd06d7236a6807b, type: 3}
    - time: 15
      value: {fileID: 21300000, guid: d7aac7dc50b14ae4cbd06d7236a6807b, type: 3}
    - time: 16
      value: {fileID: 21300000, guid: d7aac7dc50b14ae4cbd06d7236a6807b, type: 3}
    - time: 17
      value: {fileID: 21300000, guid: d7aac7dc50b14ae4cbd06d7236a6807b, type: 3}
    attribute: m_Sprite
    path: 
    classID: 212
    script: {fileID: 0}
  m_SampleRate: 1
  m_WrapMode: 0
  m_Bounds:
    m_Center: {x: 0, y: 0, z: 0}
    m_Extent: {x: 0, y: 0, z: 0}
  m_ClipBindingConstant:
    genericBindings:
    - serializedVersion: 2
      path: 0
      attribute: 0
      script: {fileID: 0}
      typeID: 212
      customType: 23
      isPPtrCurve: 1
    pptrCurveMapping:
    - {fileID: 21300000, guid: bdfcf9939ffb9fc4795f3c89f21126b2, type: 3}
    - {fileID: 21300000, guid: 357a15a4deeb9c649816c438bfe1ac1a, type: 3}
    - {fileID: 21300000, guid: 2f70d13756526ad42aabe6fdb239fa1b, type: 3}
    - {fileID: 21300000, guid: 0acf2627c629c2345805c41ae2a603be, type: 3}
    - {fileID: 21300000, guid: 75b2b03ac93c76445bc56b3bd2348a94, type: 3}
    - {fileID: 21300000, guid: 8d0d7b82d5354e44699cce7953fe9183, type: 3}
    - {fileID: 21300000, guid: d7aac7dc50b14ae4cbd06d7236a6807b, type: 3}
    - {fileID: 21300000, guid: d7aac7dc50b14ae4cbd06d7236a6807b, type: 3}
    - {fileID: 21300000, guid: d7aac7dc50b14ae4cbd06d7236a6807b, type: 3}
    - {fileID: 21300000, guid: d7aac7dc50b14ae4cbd06d7236a6807b, type: 3}
    - {fileID: 21300000, guid: d7aac7dc50b14ae4cbd06d7236a6807b, type: 3}
    - {fileID: 21300000, guid: d7aac7dc50b14ae4cbd06d7236a6807b, type: 3}
    - {fileID: 21300000, guid: d7aac7dc50b14ae4cbd06d7236a6807b, type: 3}
    - {fileID: 21300000, guid: d7aac7dc50b14ae4cbd06d7236a6807b, type: 3}
    - {fileID: 21300000, guid: d7aac7dc50b14ae4cbd06d7236a6807b, type: 3}
    - {fileID: 21300000, guid: d7aac7dc50b14ae4cbd06d7236a6807b, type: 3}
    - {fileID: 21300000, guid: d7aac7dc50b14ae4cbd06d7236a6807b, type: 3}
    - {fileID: 21300000, guid: d7aac7dc50b14ae4cbd06d7236a6807b, type: 3}
  m_AnimationClipSettings:
    serializedVersion: 2
    m_AdditiveReferencePoseClip: {fileID: 0}
    m_AdditiveReferencePoseTime: 0
    m_StartTime: 0
    m_StopTime: 18
    m_OrientationOffsetY: 0
    m_Level: 0
    m_CycleOffset: 0
    m_HasAdditiveReferencePose: 0
    m_LoopTime: 1
    m_LoopBlend: 0
    m_LoopBlendOrientation: 0
    m_LoopBlendPositionY: 0
    m_LoopBlendPositionXZ: 0
    m_KeepOriginalOrientation: 0
    m_KeepOriginalPositionY: 1
    m_KeepOriginalPositionXZ: 0
    m_HeightFromFeet: 0
    m_Mirror: 0
  m_EditorCurves: []
  m_EulerEditorCurves: []
  m_HasGenericRootTransform: 0
  m_HasMotionFloatCurves: 0
  m_GenerateMotionCurves: 0
  m_Events:
  - time: 1
    functionName: ShootingBullet
    data: 
    objectReferenceParameter: {fileID: 0}
    floatParameter: 0
    intParameter: 0
    messageOptions: 0
  - time: 3
    functionName: ShootingBullet
    data: 
    objectReferenceParameter: {fileID: 0}
    floatParameter: 0
    intParameter: 0
    messageOptions: 0
  - time: 4
    functionName: ShootingMissles
    data: 
    objectReferenceParameter: {fileID: 0}
    floatParameter: 0
    intParameter: 0
    messageOptions: 0
  - time: 5
    functionName: SpawningSoilderAndDog
    data: 
    objectReferenceParameter: {fileID: 0}
    floatParameter: 0
    intParameter: 0
    messageOptions: 0
  - time: 6
    functionName: ShootingBullet
    data: 
    objectReferenceParameter: {fileID: 0}
    floatParameter: 0
    intParameter: 0
    messageOptions: 0
  - time: 7
    functionName: ShootingMissles
    data: 
    objectReferenceParameter: {fileID: 0}
    floatParameter: 0
    intParameter: 0
    messageOptions: 0
  - time: 8
    functionName: SpawningSoilderAndDog
    data: 
    objectReferenceParameter: {fileID: 0}
    floatParameter: 0
    intParameter: 0
    messageOptions: 0
  - time: 9
    functionName: ShootingBullet
    data: 
    objectReferenceParameter: {fileID: 0}
    floatParameter: 0
    intParameter: 0
    messageOptions: 0
  - time: 10
    functionName: ShootingMissles
    data: 
    objectReferenceParameter: {fileID: 0}
    floatParameter: 0
    intParameter: 0
    messageOptions: 0
  - time: 11
    functionName: SpawningSoilderAndDog
    data: 
    objectReferenceParameter: {fileID: 0}
    floatParameter: 0
    intParameter: 0
    messageOptions: 0
  - time: 12
    functionName: ShootingBullet
    data: 
    objectReferenceParameter: {fileID: 0}
    floatParameter: 0
    intParameter: 0
    messageOptions: 0
  - time: 13
    functionName: ShootingMissles
    data: 
    objectReferenceParameter: {fileID: 0}
    floatParameter: 0
    intParameter: 0
    messageOptions: 0
  - time: 14
    functionName: SpawningSoilderAndDog
    data: 
    objectReferenceParameter: {fileID: 0}
    floatParameter: 0
    intParameter: 0
    messageOptions: 0
  - time: 15
    functionName: ShootingBullet
    data: 
    objectReferenceParameter: {fileID: 0}
    floatParameter: 0
    intParameter: 0
    messageOptions: 0
  - time: 16
    functionName: ShootingMissles
    data: 
    objectReferenceParameter: {fileID: 0}
    floatParameter: 0
    intParameter: 0
    messageOptions: 0
  - time: 17
    functionName: SpawningSoilderAndDog
    data: 
    objectReferenceParameter: {fileID: 0}
    floatParameter: 0
    intParameter: 0
    messageOptions: 0
